{
  "migIndex": 1,
  "data": [
    {
      "path": "assets/fonts/FuzzyBubbles-Regular.ttf",
      "sha1": "61be2e9e6954191b78155577952adf894c19f8e7"
    },
    {
      "path": "assets/fonts/Manrope-ExtraBold.ttf",
      "sha1": "e81485b687b5cd6836d3e143a243abb8c8ab94cd"
    },
    {
      "path": "assets/fonts/Manrope-Regular.ttf",
      "sha1": "bc5794f28b4a90844c00cb08c30c228e1355098b"
    },
    {
      "path": "assets/fonts/Manrope-SemiBold.ttf",
      "sha1": "f1c0bde2b39cef1b2c70ad606a6f687d56dc94b9"
    },
    {
      "path": "assets/fonts/PTMono-Regular.ttf",
      "sha1": "adebfdd491cb3bf2ebb92ea23e9ec1ec1608f9bc"
    }
  ]
}
